<svg xmlns="http://www.w3.org/2000/svg" width="22" height="22" viewBox="0 0 22 22">
  <defs>
    <style>
      .cls-1 {
        isolation: isolate;
      }

      .cls-2, .cls-3 {
        fill: none;
      }

      .cls-3 {
        stroke: #fffefe;
        stroke-linecap: round;
        stroke-linejoin: round;
        stroke-width: 1.5px;
      }
    </style>
  </defs>
  <g id="箭头" class="cls-1">
    <rect id="矩形_123" data-name="矩形 123" class="cls-2" width="22" height="22"/>
    <path id="括号" class="cls-3" d="M275.691,410.253l-6.808-6.808,6.808-6.807" transform="translate(-261.287 -392.446)"/>
  </g>
</svg>
